%YAML 1.1
%TAG !u! tag:unity3d.com,2011:
--- !u!162 &1
EditorUserSettings:
  m_ObjectHideFlags: 0
  serializedVersion: 4
  m_ConfigSettings:
    RecentlyUsedSceneGuid-0:
      value: 5a5757560101590a5d0c0e24427b5d44434e4c7a7b7a23677f2b4565b7b5353a
      flags: 0
    RecentlyUsedSceneGuid-1:
      value: 54090c5450575e59545c0f731471084446151c282f7922662b281b62b7e1376d
      flags: 0
    RecentlyUsedSceneGuid-2:
      value: 51010d0352530c595f08087b16725a44424e4f2f797c766775714e32b6b5326e
      flags: 0
    RecentlyUsedSceneGuid-3:
      value: 52530d5252010f0e5d58097047710a44134e4a2c7c7d71672870186ae4b6363b
      flags: 0
    RecentlyUsedSceneGuid-4:
      value: 5606555004505c085c560f7a16205a444e164f7a7879753674284d66e4b0356f
      flags: 0
    vcSharedLogLevel:
      value: 0d5e400f0650
      flags: 0
  m_VCAutomaticAdd: 1
  m_VCDebugCom: 0
  m_VCDebugCmd: 0
  m_VCDebugOut: 0
  m_SemanticMergeMode: 2
  m_DesiredImportWorkerCount: 4
  m_StandbyImportWorkerCount: 2
  m_IdleImportWorkerShutdownDelay: 60000
  m_VCShowFailedCheckout: 1
  m_VCOverwriteFailedCheckoutAssets: 1
  m_VCProjectOverlayIcons: 1
  m_VCHierarchyOverlayIcons: 1
  m_VCOtherOverlayIcons: 1
  m_VCAllowAsyncUpdate: 1
  m_ArtifactGarbageCollection: 1
